[gd_scene load_steps=4 format=2]

[ext_resource path="res://game_objects/player/unit/Unit.tscn" type="PackedScene" id=1]
[ext_resource path="res://game_objects/player/unit/Cote.gd" type="Script" id=2]
[ext_resource path="res://graphics/kurczak.png" type="Texture" id=3]

[node name="Cote" instance=ExtResource( 1 )]
script = ExtResource( 2 )

[node name="Sprite" parent="." index="0"]
texture = ExtResource( 3 )
