[gd_scene load_steps=3 format=2]

[ext_resource path="res://game_objects/player/unit/Unit.tscn" type="PackedScene" id=1]
[ext_resource path="res://game_objects/player/unit/Rook.gd" type="Script" id=2]

[node name="Rook" instance=ExtResource( 1 )]
script = ExtResource( 2 )
replace_movement = [ Vector2( 1, 0 ), Vector2( 1, 1 ), Vector2( 0, 1 ), Vector2( -1, 1 ), Vector2( -1, 0 ), Vector2( -1, -1 ), Vector2( 0, -1 ), Vector2( 1, -1 ) ]
