[gd_scene load_steps=3 format=2]

[ext_resource path="res://game_objects/player/unit/Unit.tscn" type="PackedScene" id=1]
[ext_resource path="res://graphics/lis1.png" type="Texture" id=2]

[node name="TestUnit" instance=ExtResource( 1 )]

[node name="Sprite" type="Sprite" parent="." index="0"]
texture = ExtResource( 2 )
